TS-intro
…
rus = filter(data, regcode == 643)
rus1 = select(rus, date, marriage)

rus2 = mutate(rus1, date = yearmonth(date))
rus3 = arrange(rus2, date)

marr = as_tsibble(rus3, index = date)
marr

# A tsibble: 180 x 2 [1M]
       date marriage
      <mth>    <int>
 1 2006 янв    55509
 2 2006 фев    62449
 3 2006 мар    70798
 4 2006 апр    86055
 5 2006 мая    35960
 6 2006 июн   111409
 7 2006 июл   127475
 8 2006 авг   149120
 9 2006 сен   151116
10 2006 окт    95192
# … with 170 more rows
…
Прогнозы:

fcst = forecast(mod_table, h = '2 years')
fcst

# A fable: 72 x 4 [1M]
# Key:     .model [3]
   .model     date          marriage .mean
   <chr>     <mth>            <dist> <dbl>
 1 base   2021 янв N(54121, 1.2e+09) 54121
 2 base   2021 фев N(54121, 2.3e+09) 54121
 3 base   2021 мар N(54121, 3.5e+09) 54121
 4 base   2021 апр N(54121, 4.6e+09) 54121
 5 base   2021 мая N(54121, 5.8e+09) 54121
 6 base   2021 июн N(54121, 6.9e+09) 54121
 7 base   2021 июл N(54121, 8.1e+09) 54121
 8 base   2021 авг N(54121, 9.3e+09) 54121
 9 base   2021 сен   N(54121, 1e+10) 54121
10 base   2021 окт N(54121, 1.2e+10) 54121
# … with 62 more rows
…
